upbm: Pre-Processing Details • upbm
…
This default behavior can be changed to instead read mean (rather than median) foreground and background intensities, or to simply ignore background intensities by modifying the useMedian = and readBackground = parameters of gprPBMExperiment(..).

The background intensities are useful for measuring non-specific fluorescence at each probe for each scan. Typically, background intensities are subtracted from foreground intensities to return “background subtracted intensities” (BSIs) for each probe. This is performed for both Alexa488 and Cy3 scans using backgroundSubtract(..).

alexa_subset <- backgroundSubtract(alexa_subset, assay = "fore", assayb = "back")
hoxc9cy3 <- backgroundSubtract(hoxc9cy3, assay = "fore", assayb = "back")

Rather than creating a new assay in the PBMExperiment objects, BSIs replace the "fore" assay values of each assay. Any probes which negative BSIs (corresponding to probes with background intensities greater than foreground intensities) are set to NA. This can be changed by setting nonnegative = FALSE in the call to backgroundSubtract(..).

We take a look at the distribution of BSIs for each sample by tidying the new "fore" assay.

tdat <- broom::tidy(alexa_subset, "fore", long = TRUE)
tdat

# # A tibble: 419,440 x 16
#    Column   Row probeID Sequence cname  fore   date version    id reuse
#     <int> <int> <chr>   <chr>    <chr> <dbl>  <dbl> <chr>   <dbl> <dbl>
#  1      6     1 dBr_14… GGTGTGA… s4     9051 170606 v14       226     1
#  2      7     1 dBr_06… CAGTCTA… s4    17547 170606 v14       226     1
#  3      8     1 dBr_39… CTTTTTA… s4    19086 170606 v14       226     1
#  4      9     1 dBr_06… CAGCTAC… s4     3720 170606 v14       226     1
#  5     10     1 dBr_05… GCTTCGA… s4     4100 170606 v14       226     1
#  6     15     1 dBr_16… CGCCCGT… s4    16224 170606 v14       226     1
#  7     23     1 dBr_20… TTAGCCC… s4     6165 170606 v14       226     1
#  8     24     1 dBr_25… TGCACAA… s4     3098 170606 v14       226     1
#  9     26     1 dBr_40… GGATGCC… s4     2917 170606 v14       226     1
# 10     27     1 dBr_21… GTCAGAA… s4     4006 170606 v14       226     1
# # … with 419,430 more rows, and 6 more variables: type <chr>, pmt <dbl>,
# #   idx <dbl>, target <chr>, condition <chr>, id_idx <chr>
…
