upbm: Summarization Details • upbm
…
The returned PBMExperiment now only includes one column for each condition (HOXC9-K195R, HOXC9-R193K, HOXC0-R222W, HOXC9-REF). The cross-replicate summarized probe intensities are included in the beta assay.

pfit_dat <- broom::tidy(alexa_pfit, assay = c("beta", "sd"))
pfit_dat

## # A tibble: 167,776 x 7
##    Column   Row probeID      Sequence                  cname     beta    sd
##     <int> <int> <chr>        <chr>                     <chr>    <dbl> <dbl>
##  1      6     1 dBr_14334_J… GGTGTGAGTCCATTTCGTCAAACC… HOXC9-K…  11.6 0.482
##  2      7     1 dBr_06208_J… CAGTCTAAGTTTTCGGATTACCAT… HOXC9-K…  12.7 0.413
##  3      8     1 dBr_39317_J… CTTTTTAAAGACCTAGGAATCATT… HOXC9-K…  12.7 0.339
##  4      9     1 dBr_06987_J… CAGCTACGGAAGAGTAAAGGTTGT… HOXC9-K…  10.1 0.303
##  5     10     1 dBr_05074_J… GCTTCGAACGTGGGCGATGGAACA… HOXC9-K…  10.0 0.285
##  6     15     1 dBr_16182_J… CGCCCGTGGTAACAGTTACGAAAA… HOXC9-K…  12.7 0.485
##  7     23     1 dBr_20062_J… TTAGCCCGTTGTATGAGCAACTAT… HOXC9-K…  11.4 0.351
##  8     24     1 dBr_25542_J… TGCACAAGCGATCGAGCTCCTGTG… HOXC9-K…  10.5 0.369
##  9     26     1 dBr_40621_J… GGATGCCTCTTCTTTTCCGGGTCA… HOXC9-K…  10.7 0.434
## 10     27     1 dBr_21815_J… GTCAGAACCTCGCAAGTGGCACTT… HOXC9-K…  10.5 0.403
## # … with 167,766 more rows
…
The returned PBMExperiment includes the same number of columns corresponding to the four conditions. The number of rows is equal to the number of K-mers specified to kmers= above.

length(uniqueKmers(8L))

## [1] 32896

For each condition, an 8-mer affinityEstimate and affinityVariance is computed. For all conditions other than the baseline, contrastDifference (baseline - condition), contrastAverage ((baseline + condition)/2) and contrastVariance (var(baseline - condition)) values are also computed.

kfit_dat <- broom::tidy(alexa_kfit, c("affinityEstimate", "affinityVariance",
                                      "contrastDifference", "contrastAverage",
                                      "contrastVariance"))
kfit_dat

## # A tibble: 131,584 x 7
##    seq   cname affinityEstimate affinityVariance contrastDiffere…
##    <chr> <chr>            <dbl>            <dbl>            <dbl>
##  1 AAAA… HOXC…             11.8           0.0146          0.201  
##  2 AAAA… HOXC…             11.7           0.0156          0.111  
##  3 AAAA… HOXC…             11.5           0.0237          0.140  
##  4 AAAA… HOXC…             12.1           0.0225          0.275  
##  5 AAAA… HOXC…             11.7           0.0367          0.108  
##  6 AAAA… HOXC…             11.5           0.0222          0.0517 
##  7 AAAA… HOXC…             11.8           0.0239          0.00936
##  8 AAAA… HOXC…             11.4           0.0179          0.173  
##  9 AAAA… HOXC…             11.7           0.0308          0.0942 
## 10 AAAA… HOXC…             11.3           0.0234          0.0948 
## # … with 131,574 more rows, and 2 more variables: contrastAverage <dbl>,
## #   contrastVariance <dbl>
…
