upbm: QC Plots • upbm
…
data(hoxc9alexa, package = "upbmData")
data(hoxc9cy3, package = "upbmData")

Here, we again use just single PMT gain scan for the Alexa488 scans.

alexa_subset <- hoxc9alexa[, colData(hoxc9alexa)$pmt == 450]

QC: Raw Alexa488 Data

For exploratory analysis, we tidy both the foreground and background intensities from Alexa488 scans.

alexa_dat <- broom::tidy(alexa_subset, c("fore", "back"))
alexa_dat

## # A tibble: 419,440 x 17
##    Column   Row probeID Sequence cname  fore  back   date version    id
##     <int> <int> <chr>   <chr>    <chr> <dbl> <dbl>  <dbl> <chr>   <dbl>
##  1      6     1 dBr_14… GGTGTGA… s4     9522   471 170606 v14       226
##  2      7     1 dBr_06… CAGTCTA… s4    18050   503 170606 v14       226
##  3      8     1 dBr_39… CTTTTTA… s4    19591   505 170606 v14       226
##  4      9     1 dBr_06… CAGCTAC… s4     4150   430 170606 v14       226
##  5     10     1 dBr_05… GCTTCGA… s4     4499   399 170606 v14       226
##  6     15     1 dBr_16… CGCCCGT… s4    16744   520 170606 v14       226
##  7     23     1 dBr_20… TTAGCCC… s4     7032   867 170606 v14       226
##  8     24     1 dBr_25… TGCACAA… s4     3493   395 170606 v14       226
##  9     26     1 dBr_40… GGATGCC… s4     3231   314 170606 v14       226
## 10     27     1 dBr_21… GTCAGAA… s4     4323   317 170606 v14       226
## # … with 419,430 more rows, and 7 more variables: reuse <dbl>, type <chr>,
## #   pmt <dbl>, idx <dbl>, target <chr>, condition <chr>, id_idx <chr>
…
We see that background intensities unsurprisingly higher at the center of arrays.

QC: Raw Cy3 Data

Again, we tidy both the foreground and background intensities from Cy3 scans.

cy3_dat <- broom::tidy(hoxc9cy3, c("fore", "back"))
cy3_dat

## # A tibble: 419,440 x 17
##    Column   Row probeID Sequence cname  fore  back   date version    id
##     <int> <int> <chr>   <chr>    <chr> <dbl> <dbl>  <dbl> <chr>   <dbl>
##  1      6     1 dBr_14… GGTGTGA… s13    5936    50 180326 v14       249
##  2      7     1 dBr_06… CAGTCTA… s13    5110    52 180326 v14       249
##  3      8     1 dBr_39… CTTTTTA… s13    6038    49 180326 v14       249
##  4      9     1 dBr_06… CAGCTAC… s13    4636    45 180326 v14       249
##  5     10     1 dBr_05… GCTTCGA… s13    5454    46 180326 v14       249
##  6     15     1 dBr_16… CGCCCGT… s13    6285    47 180326 v14       249
##  7     23     1 dBr_20… TTAGCCC… s13    5509    48 180326 v14       249
##  8     24     1 dBr_25… TGCACAA… s13    3418    48 180326 v14       249
##  9     26     1 dBr_40… GGATGCC… s13    2553    48 180326 v14       249
## 10     27     1 dBr_21… GTCAGAA… s13    3462    48 180326 v14       249
## # … with 419,430 more rows, and 7 more variables: reuse <dbl>, type <chr>,
## #   pmt <dbl>, idx <dbl>, target <chr>, condition <chr>, id_idx <chr>
…
