upbm: Analysis of universal Protein Binding Microarrays in R • upbm
…
K-mer level averages and differences between the baseline and all other conditions are included in the contrastAverage and contrastDifference assays. FDR-adjusted p-values are included in the contrastQ assay. We can tidy the results from a PBMExperiment to a tibble using the broom::tidy function.

diffdat <- broom::tidy(alexa_kdiff, assay = c("contrastAverage",
                                              "contrastDifference",
                                              "contrastQ"))
diffdat <- dplyr::filter(diffdat, !is.na(contrastAverage))
diffdat

## # A tibble: 32,896 x 5
##    seq      cname       contrastAverage contrastDifference  contrastQ
##    <chr>    <chr>                 <dbl>              <dbl>      <dbl>
##  1 AAAAAAAA HOXC9-R222W            11.5            -0.340  0.00485   
##  2 AAAAAAAC HOXC9-R222W            11.4            -0.405  0.00322   
##  3 AAAAAAAG HOXC9-R222W            11.3            -0.0669 0.578     
##  4 AAAAAAAT HOXC9-R222W            11.6            -0.418  0.000297  
##  5 AAAAAACA HOXC9-R222W            11.4            -0.350  0.0232    
##  6 AAAAAACC HOXC9-R222W            11.3            -0.257  0.0791    
##  7 AAAAAACG HOXC9-R222W            11.5            -0.559  0.00000616
##  8 AAAAAACT HOXC9-R222W            11.2            -0.0980 0.391     
##  9 AAAAAAGA HOXC9-R222W            11.4            -0.412  0.00108   
## 10 AAAAAAGC HOXC9-R222W            11.2            -0.0273 0.853     
## # … with 32,886 more rows
…
