upbm: Analysis of Protein Binding Microarrays in R • upbm
…
In this vignette we demonstrate the typical analysis steps with the upbm package. Here, and in other vignettes, data from a triplicate series of PBM experiments are used to illustrate the features of the package. While this vignette covers only the basics of the upbm package, more details on the object classes (PBMExperiment and PBMDesign) and pre-processing functions are also provided in separate vignettes.

HOXC9 Dataset

The dataset includes GenePix Results (GPR) data from Alexa488 scans for wild type human transcription factor (TF) HOXC9 and three allelic variants (K195R, R193K, R222W). Corresponding Cy3 scans are also included for all arrays. Each array was scanned for Alexa488 fluorescence at multiple PMT gains and Cy3 at a single PMT gain. The series comes from a larger set of experiments studying the effect of allelic variants on human transcription factor binding (manuscript in preparation). The HOXC9 data objects are stored in a separate upbmData package for convenience and include a table of sample metadata (hoxc9table), a PBMExperiment of Alexa488 scan data (hoxc9alexa), and a PBMExperiment of Cy3 scan data (hoxc9cy3).

data(hoxc9table, package = "upbmData")
data(hoxc9alexa, package = "upbmData")
data(hoxc9cy3, package = "upbmData")

Metadata for Alexa488 and Cy3 scans are provided in the sample table.

hoxc9table

# # A tibble: 40 x 11
#    gpr     date version    id reuse type    pmt   idx target condition
#    <chr>  <dbl> <chr>   <dbl> <dbl> <chr> <dbl> <dbl> <chr>  <chr>    
#  1 ./PB… 170606 v14       226     1 Alexa   400     2 HOXC9  HOXC9-REF
#  2 ./PB… 170606 v14       226     1 Alexa   400     3 HOXC9  HOXC9-R1…
#  3 ./PB… 170606 v14       226     1 Alexa   400     6 HOXC9  HOXC9-K1…
#  4 ./PB… 170606 v14       226     1 Alexa   450     2 HOXC9  HOXC9-REF
#  5 ./PB… 170606 v14       226     1 Alexa   450     3 HOXC9  HOXC9-R1…
#  6 ./PB… 170606 v14       226     1 Alexa   450     6 HOXC9  HOXC9-K1…
#  7 ./PB… 170606 v14       226     1 Alexa   450     7 HOXC9  HOXC9-R2…
#  8 ./PB… 170606 v14       226     1 Alexa   500     2 HOXC9  HOXC9-REF
#  9 ./PB… 170606 v14       226     1 Alexa   500     3 HOXC9  HOXC9-R1…
# 10 ./PB… 170606 v14       226     1 Alexa   500     6 HOXC9  HOXC9-K1…
# # … with 30 more rows, and 1 more variable: id_idx <chr>
…
cy3_subset <- hoxc9cy3[, colData(hoxc9cy3)$id_idx %in%
                                          colData(alexa_subset)$id_idx]

Tidy Data

“Tidy data” has become a popular and powerful framework for organizing data during interactive analysis. In the tidy data framework, data is organized as a data.frame with each row corresponding to an individual obervation or sample. Not only does the tidy data framework help keep data organized, but it also unlocks the powerful data parsing and visualization functions in the Tidyverse collection of packages.

To keep track of various probe and sample metadata compactly, uPBM data are not organized as tidy data. Instead, they are stored as PBMExperiment and PBMDesign objects which extend core Bioconductor data structures (see separate vignette: upbm: Class Details). However, when performing interactive analysis, it can be useful to extract tidy data from the PBMExperiment objects. This is made possible with the broom::tidy function originally defined in the broom package.

The data for a single assay in PBMExperiment and SummarizedExperiment objects can be returned in wide or long format by passing the objects to broom::tidy.

broom::tidy(alexa_subset, assay = "fore", long = FALSE)

## # A tibble: 41,944 x 10
##       s4    s7   s17   s20   s33   s34 Column   Row probeID   Sequence     
##    <dbl> <dbl> <dbl> <dbl> <dbl> <dbl>  <int> <int> <chr>     <chr>        
##  1  9522  1137  2305  2478   766  2225      6     1 dBr_1433… GGTGTGAGTCCA…
##  2 18050  1209  4903  2662  1582  1442      7     1 dBr_0620… CAGTCTAAGTTT…
##  3 19591  1140  4365  2523  1539  2074      8     1 dBr_3931… CTTTTTAAAGAC…
##  4  4150   720  1029  1307   297  1068      9     1 dBr_0698… CAGCTACGGAAG…
##  5  4499   708   966  1583   342  1334     10     1 dBr_0507… GCTTCGAACGTG…
##  6 16744  1298  3956  2889   719  1593     15     1 dBr_1618… CGCCCGTGGTAA…
##  7  7032   812  2215  1564   542  1345     23     1 dBr_2006… TTAGCCCGTTGT…
##  8  3493   558  1411  1180   330   927     24     1 dBr_2554… TGCACAAGCGAT…
##  9  3231   725  1244  1968   271   761     26     1 dBr_4062… GGATGCCTCTTC…
## 10  4323   663  1157  1408   340   950     27     1 dBr_2181… GTCAGAACCTCG…
## # … with 41,934 more rows

broom::tidy(alexa_subset, assay = "fore", long = TRUE)

## # A tibble: 251,664 x 16
##    Column   Row probeID Sequence cname value   date version    id reuse
##     <int> <int> <chr>   <chr>    <chr> <dbl>  <dbl> <chr>   <dbl> <dbl>
##  1      6     1 dBr_14… GGTGTGA… s4     9522 170606 v14       226     1
##  2      7     1 dBr_06… CAGTCTA… s4    18050 170606 v14       226     1
##  3      8     1 dBr_39… CTTTTTA… s4    19591 170606 v14       226     1
##  4      9     1 dBr_06… CAGCTAC… s4     4150 170606 v14       226     1
##  5     10     1 dBr_05… GCTTCGA… s4     4499 170606 v14       226     1
##  6     15     1 dBr_16… CGCCCGT… s4    16744 170606 v14       226     1
##  7     23     1 dBr_20… TTAGCCC… s4     7032 170606 v14       226     1
##  8     24     1 dBr_25… TGCACAA… s4     3493 170606 v14       226     1
##  9     26     1 dBr_40… GGATGCC… s4     3231 170606 v14       226     1
## 10     27     1 dBr_21… GTCAGAA… s4     4323 170606 v14       226     1
## # … with 251,654 more rows, and 6 more variables: type <chr>, pmt <dbl>,
## #   idx <dbl>, target <chr>, condition <chr>, id_idx <chr>
…
